…
let’s start with a for loop

``` r
output = vector("list", length = 100)

for (i in 1:100) {
  
  output[[i]] = sim_mean_sd(samp_size = 30)
}

bind_rows(output)
```

    ## # A tibble: 100 x 2
    ##     mean    sd
    ##    <dbl> <dbl>
    ##  1  1.72  3.31
    ##  2  3.52  3.39
    ##  3  2.37  3.46
    ##  4  4.53  3.97
    ##  5  2.26  4.34
    ##  6  2.95  3.50
    ##  7  2.16  4.31
    ##  8  1.84  4.09
    ##  9  4.46  3.87
    ## 10  2.90  4.54
    ## # ... with 90 more rows
…
